{
  "project_info": {
    "project_number": "795960095167",
    "firebase_url": "https://etaxi-8e905.firebaseio.com",
    "project_id": "etaxi-8e905",
    "storage_bucket": "etaxi-8e905.appspot.com"
  },
  "client": [
    {
      "client_info": {
        "mobilesdk_app_id": "1:795960095167:android:767b0a678414e9a6",
        "android_client_info": {
          "package_name": "ke.co.etaxidriver"
        }
      },
      "oauth_client": [
        {
          "client_id": "795960095167-dmd8kvv1b6gmnkoiug8fr955kgm8q2q5.apps.googleusercontent.com",
          "client_type": 3
        }
      ],
      "api_key": [
        {
          "current_key": "AIzaSyCntepHTIQSXcCYzM-qPG9_A4dUL33dSZc"
        }
      ],
      "services": {
        "appinvite_service": {
          "other_platform_oauth_client": [
            {
              "client_id": "795960095167-dmd8kvv1b6gmnkoiug8fr955kgm8q2q5.apps.googleusercontent.com",
              "client_type": 3
            }
          ]
        }
      }
    }
  ],
  "configuration_version": "1"
}